Locus	call_rate	sample1	sample2
100010589|F|0	1	1	0
100018713|F|0	1	0	0
100024361|F|0	1	0	0
100012272|F|0	0.97752809	1	1
100037144|F|0	0.95505618	1	1
100030913|F|0	0.966292135	0	1
100057529|F|0	0.966292135	1	0
100046638|F|0	0.988764045	0	0
100018111|F|0	0.91011236	1	1
100026000|F|0	1	0	2
100013903|F|0	0.97752809	1	0
100022621|F|0	0.921348315	1	1
100013722|F|0	0.97752809	0	1
100023981|F|0	0.95505618	0	1
100013668|F|0	0.966292135	1	1
100028209|F|0	0.91011236	1	0
100038062|F|0	1	1	0
